# A tibble: 180 x 88
# Groups:   activity [?]
   activity subject `tBodyAcc-mean(~ `tBodyAcc-mean(~ `tBodyAcc-mean(~
   <fct>      <int>            <dbl>            <dbl>            <dbl>
 1 WALKING        1            0.277          -0.0174           -0.111
 2 WALKING        2            0.276          -0.0186           -0.106
 3 WALKING        3            0.276          -0.0172           -0.113
 4 WALKING        4            0.279          -0.0148           -0.111
 5 WALKING        5            0.278          -0.0173           -0.108
 6 WALKING        6            0.284          -0.0169           -0.110
 7 WALKING        7            0.276          -0.0187           -0.111
 8 WALKING        8            0.275          -0.0187           -0.107
 9 WALKING        9            0.279          -0.0181           -0.111
10 WALKING       10            0.279          -0.0170           -0.109
# ... with 170 more rows, and 83 more variables: `tBodyAcc-std()-X` <dbl>,
#   `tBodyAcc-std()-Y` <dbl>, `tBodyAcc-std()-Z` <dbl>,
#   `tGravityAcc-mean()-X` <dbl>, `tGravityAcc-mean()-Y` <dbl>,
#   `tGravityAcc-mean()-Z` <dbl>, `tGravityAcc-std()-X` <dbl>,
#   `tGravityAcc-std()-Y` <dbl>, `tGravityAcc-std()-Z` <dbl>,
#   `tBodyAccJerk-mean()-X` <dbl>, `tBodyAccJerk-mean()-Y` <dbl>,
#   `tBodyAccJerk-mean()-Z` <dbl>, `tBodyAccJerk-std()-X` <dbl>,
#   `tBodyAccJerk-std()-Y` <dbl>, `tBodyAccJerk-std()-Z` <dbl>,
#   `tBodyGyro-mean()-X` <dbl>, `tBodyGyro-mean()-Y` <dbl>,
…
